<svg xmlns="http://www.w3.org/2000/svg" width="1440" height="950" viewBox="0 0 1440 950">
    <defs>
        <linearGradient id="a" x1="90.272%" x2="2.119%" y1="65.468%" y2="50%">
            <stop offset="0%" stop-color="#80CAE6"/>
            <stop offset="100%" stop-color="#3BADE3"/>
        </linearGradient>
    </defs>
    <path fill="url(#a)" fill-rule="evenodd" d="M0 2845h1440v950H0z" transform="translate(0 -2845)"/>
</svg>
