<svg xmlns="http://www.w3.org/2000/svg" width="107" height="108" viewBox="0 0 107 108">
    <g fill="none" fill-rule="evenodd">
        <path fill="#369EDB" d="M41.002 65.771v-23.72H7.709c-4.257 0-7.708 3.756-7.708 8.01v15.71h41zM106.1 65.771v-15.71c0-4.253-3.451-8.01-7.708-8.01H65.1v23.72h41zM94.54 106.922c4.256 0 7.245-3.45 7.245-7.704V68.106H65.099v38.816h29.44zM11.561 106.922h29.44V68.106H4.317v31.112c0 4.254 2.988 7.703 7.245 7.703z"/>
        <path fill="#7EC8EF" d="M44.418 107.822h17.264V42.05H44.418z"/>
        <path fill="#369EDB" d="M76.902 8.984c5.664 0 10.275 4.65 10.275 10.37 0 5.715-4.61 10.369-10.275 10.369H60.367l2.065-4.28 2.892-5.989h.177l2.5-4.907c1.778-3.483 5.108-5.563 8.9-5.563zm-45.137 0c3.798 0 7.124 2.08 8.902 5.56l2.504 4.906h.223l2.82 5.934 2.057 4.334-16.506.004c-5.664 0-10.275-4.65-10.275-10.37 0-5.714 4.61-10.368 10.275-10.368zM76.902 0c-7.296 0-13.64 4.052-16.915 10.47h-.004l-.004-.43c-.325.595-.615.982-.877 1.61l-4.775 9.885L49.55 11.48c-.26-.627-.552-.825-.876-1.415l.004.404h-.004C45.405 4.052 39.06 0 31.765 0 21.127 0 12.499 8.722 12.499 19.353c-.004 10.635 8.628 19.353 19.266 19.353h45.14c10.639 0 19.266-8.723 19.266-19.353S87.543 0 76.9 0z"/>
    </g>
</svg>
